<?xml version="1.0" encoding="UTF-8"?>
<session version="1.0">
<refactoring comment="Delete resource &apos;Paxos&apos;" deleteContents="false" description="Delete resource &apos;Paxos&apos;" element1="/Paxos" flags="7" id="org.eclipse.ltk.core.refactoring.delete.resources" resources="1" stamp="1417425643240"/>
</session>